Data Wrangling and Visualisation in R Lab Script
…
install.packages(tidyverse)

Dont forget the quotes! Once youve installed the tidyverse, you can then load it into your library by running the command in the script - remember, you do that by putting your cursor at the start of the line in the script you want to run and then pressing CMD-RETURN:

library(tidyverse)

Make sure youre writing the commands in the script window and not in the console - the console cant be saved so you dont want to use it for crucial data science work that you need to be able to run and save!

library(tidyverse)

We are going to use the Star Wars data set that is built into the dplyr package (which is part of the tidyverse set of packages). If you type the name of the dataset youll see the first 10 rows.

starwars

## # A tibble: 87 x 13
##    name  height  mass hair_color skin_color eye_color birth_year gender
##    <chr>  <int> <dbl> <chr>      <chr>      <chr>          <dbl> <chr> 
##  1 Luke    172    77 blond      fair       blue            19   male  
##  2 C-3PO    167    75 <NA>       gold       yellow         112   <NA>  
##  3 R2-D2     96    32 <NA>       white, bl red             33   <NA>  
##  4 Dart    202   136 none       white      yellow          41.9 male  
##  5 Leia    150    49 brown      light      brown           19   female
##  6 Owen    178   120 brown, gr light      blue            52   male  
##  7 Beru    165    75 brown      light      blue            47   female
##  8 R5-D4     97    32 <NA>       white, red red             NA   <NA>  
##  9 Bigg    183    84 black      light      brown           24   male  
## 10 Obi-    182    77 auburn, w fair       blue-gray       57   male  
## # ... with 77 more rows, and 5 more variables: homeworld <chr>,
## #   species <chr>, films <list>, vehicles <list>, starships <list>
…
Now we are going to select a subset of Star Wars data and create a new dataframe with the variables labelled name, homeworld, and species. Type the following commands into you script and run them line by line to see what happens

Remember to add white space between different sections of your script - this makes reading it later much easier.

swdata <- select(starwars, "name", "height", "homeworld", "species")
swdata

## # A tibble: 87 x 4
##    name               height homeworld species
##    <chr>               <int> <chr>     <chr>  
##  1 Luke Skywalker        172 Tatooine  Human  
##  2 C-3PO                 167 Tatooine  Droid  
##  3 R2-D2                  96 Naboo     Droid  
##  4 Darth Vader           202 Tatooine  Human  
##  5 Leia Organa           150 Alderaan  Human  
##  6 Owen Lars             178 Tatooine  Human  
##  7 Beru Whitesun lars    165 Tatooine  Human  
##  8 R5-D4                  97 Tatooine  Droid  
##  9 Biggs Darklighter     183 Tatooine  Human  
## 10 Obi-Wan Kenobi        182 Stewjon   Human  
## # ... with 77 more rows

Now lets select just Humans and cases where we do not have missing Height values. We are going to use the %>% operator which pipes the dataframe called swdata" along the pipe to the filter functions. The first filter allows through only those cases in the data set where species is eaual to Human - note the use of == which means is equal to. The output of this filter is then passed along to another filter which allows only those cases where there is no missing data for the height variable. In R, NA means not available. We are using the negation operator ! which means we have an expression which effectively means Not not available - aka the data is present for that variable.

We are mapping the output of the above operation onto a new variable we are calling swdata_human

swdata_human <- swdata %>% filter(species == "Human") %>% filter(!is.na(height))

If you want to have a look at whats stored in this variable, you can just type swdata_human.

swdata_human

## # A tibble: 31 x 4
##    name               height homeworld species
##    <chr>               <int> <chr>     <chr>  
##  1 Luke Skywalker        172 Tatooine  Human  
##  2 Darth Vader           202 Tatooine  Human  
##  3 Leia Organa           150 Alderaan  Human  
##  4 Owen Lars             178 Tatooine  Human  
##  5 Beru Whitesun lars    165 Tatooine  Human  
##  6 Biggs Darklighter     183 Tatooine  Human  
##  7 Obi-Wan Kenobi        182 Stewjon   Human  
##  8 Anakin Skywalker      188 Tatooine  Human  
##  9 Wilhuff Tarkin        180 Eriadu    Human  
## 10 Han Solo              180 Corellia  Human  
## # ... with 21 more rows
…
summarise(swdata_human, Mean = mean(height), Min = min(height), Max = max(height), sd = sd(height))

## # A tibble: 1 x 4
##    Mean   Min   Max    sd
##   <dbl> <dbl> <dbl> <dbl>
## 1  177.   150   202  12.5

We are next going to summarise the entire star wars data, removing missing data points and map this onto a new data frame called mydata.

We are going to generate summary data as before, but this time it is preceded by the group_by() function. This groups our data by species so that the summarise function applies for each type of species. We have some missing data in our data frame so will use a variation of the summarise() function called summarise_at(). This allows to remove missing data by using na.rm=TRUE. We are calculating the mean, the median, the min and the max for our height variable. Note that the syntax is a little different from the summary() function.

mydata <- starwars %>% group_by(species) %>% summarise_at("height", c(Mean = mean, Median = median, Min = min, Max = max, sd = sd), na.rm = TRUE)
mydata

## # A tibble: 38 x 6
##    species    Mean Median   Min   Max    sd
##    <chr>     <dbl>  <dbl> <int> <int> <dbl>
##  1 Aleena      79      79    79    79  NA  
##  2 Besalisk   198     198   198   198  NA  
##  3 Cerean     198     198   198   198  NA  
##  4 Chagrian   196     196   196   196  NA  
##  5 Clawdite   168     168   168   168  NA  
##  6 Droid      140     132    96   200  52.0
##  7 Dug        112     112   112   112  NA  
##  8 Ewok        88      88    88    88  NA  
##  9 Geonosian  183     183   183   183  NA  
## 10 Gungan     209.    206   196   224  14.2
## # ... with 28 more rows
…
